{
    "/js/deals.js": "/js/deals.js",
    "/js/delete-btn.js": "/js/delete-btn.js",
    "/js/charts.js": "/js/charts.js",
    "/js/profit-calendar.js": "/js/profit-calendar.js",
    "/js/tables/deals-table.js": "/js/tables/deals-table.js",
    "/js/categories.js": "/js/categories.js",
    "/js/editor.js": "/js/editor.js",
    "/js/galleries.js": "/js/galleries.js",
    "/js/deal-document.js": "/js/deal-document.js",
    "/js/slim-cropper.js": "/js/slim-cropper.js",
    "/js/loader.js": "/js/loader.js",
    "/js/sluggenerator.js": "/js/sluggenerator.js",
    "/js/inventory-table.js": "/js/inventory-table.js",
    "/js/tables/clients-table.js": "/js/tables/clients-table.js",
    "/js/statistics.js": "/js/statistics.js",
    "/js/paginatable-box.js": "/js/paginatable-box.js",
    "/js/offcanvas.js": "/js/offcanvas.js",
    "/js/notifications-bar.js": "/js/notifications-bar.js",
    "/js/imageinput.js": "/js/imageinput.js",
    "/js/fotorama.js": "/js/fotorama.js",
    "/js/export.js": "/js/export.js",
    "/js/upload-manager.js": "/js/upload-manager.js",
    "/js/dropzone.js": "/js/dropzone.js",
    "/js/deal-manager-profit.js": "/js/deal-manager-profit.js",
    "/js/inventory-chart.js": "/js/inventory-chart.js",
    "/js/roles-permissions.js": "/js/roles-permissions.js",
    "/js/app.js": "/js/app.js",
    "/js/custom.js": "/js/custom.js",
    "/css/app.css": "/css/app.css",
    "/web/js/app.min.js": "/web/js/app.min.js",
    "/web/js/system.min.js": "/web/js/system.min.js"
}
